Lab 4
…
Explore two more interesting questions, and answer those questions using the GSS data.

dat6 <- dat %>%
    mutate(Employment = ifelse(Employment%in%c("Working fulltime", "School","Keeping house", "Retired","Working parttime"),1,0)) %>%
  select(Employment, Education, Happiness,Year) %>%
   mutate(Happiness = ifelse(Happiness%in%c("Pretty happy","Very happy"),'Happy','Not Happy')) %>%
  group_by(Year) %>%
  mutate(employment_rate = mean(Employment))

summarize(dat6, 1-mean(Employment))

## # A tibble: 33 x 2
##     Year `1 - mean(Employment)`
##  * <dbl>                  <dbl>
##  1  1972                 0.0670
##  2  1973                 0.0565
##  3  1974                 0.0741
##  4  1975                 0.0718
##  5  1976                 0.0667
##  6  1977                 0.0647
##  7  1978                 0.0705
##  8  1980                 0.0674
##  9  1982                 0.0962
## 10  1983                 0.0907
## #  with 23 more rows
…
